<svg width="21" height="12" viewBox="0 0 21 12" fill="none" xmlns="http://www.w3.org/2000/svg">
<path d="M20.5303 6.53033C20.8232 6.23744 20.8232 5.76257 20.5303 5.46967L15.7574 0.696702C15.4645 0.403809 14.9896 0.403809 14.6967 0.696702C14.4038 0.989595 14.4038 1.46447 14.6967 1.75736L18.9393 6L14.6967 10.2426C14.4038 10.5355 14.4038 11.0104 14.6967 11.3033C14.9896 11.5962 15.4645 11.5962 15.7574 11.3033L20.5303 6.53033ZM-1.31134e-07 6.75L20 6.75L20 5.25L1.31134e-07 5.25L-1.31134e-07 6.75Z" fill="white"/>
</svg>
