<svg width="56" height="56" viewBox="0 0 56 56" fill="none" xmlns="http://www.w3.org/2000/svg">
<circle cx="28" cy="28" r="23" stroke="white" stroke-width="0.5"/>
<circle cx="28" cy="28" r="25" stroke="white" stroke-opacity="0.67" stroke-width="0.5"/>
<circle cx="28" cy="28" r="27" stroke="white" stroke-opacity="0.21" stroke-width="0.5"/>
<g filter="url(#filter0_b)">
<circle cx="28" cy="28" r="21" fill="white"/>
</g>
<path fill-rule="evenodd" clip-rule="evenodd" d="M33.5708 27.1425C34.2182 27.5309 34.2182 28.4691 33.5708 28.8575L26.5145 33.0913C25.848 33.4912 25 33.0111 25 32.2338V23.7662C25 22.9889 25.848 22.5088 26.5145 22.9087L33.5708 27.1425Z" fill="#DED2D4"/>
<defs>
<filter id="filter0_b" x="-43" y="-43" width="142" height="142" filterUnits="userSpaceOnUse" color-interpolation-filters="sRGB">
<feFlood flood-opacity="0" result="BackgroundImageFix"/>
<feGaussianBlur in="BackgroundImage" stdDeviation="25"/>
<feComposite in2="SourceAlpha" operator="in" result="effect1_backgroundBlur"/>
<feBlend mode="normal" in="SourceGraphic" in2="effect1_backgroundBlur" result="shape"/>
</filter>
</defs>
</svg>
